…
We can also split the counties by which counties have ever received more
than $1,000 in 1033 gear. Then, we can compare the most killings in the
first group with the most killings in the second group, the second most
killings in the first group with the second most killings in the second
group, the third most….and so on.

Doing this shows that 10 out of the 14 top ranks are larger for the
\>$1000 group, 1 of 14 are equal, and just 3 of 14 are
    smaller.

    ## `summarise()` ungrouping output (override with `.groups` argument)
    ## `summarise()` ungrouping output (override with `.groups` argument)

    ## # A tibble: 651 x 2
    ##    ag_names                                 m
    ##    <chr>                                <dbl>
    ##  1 dekalb county police department      2.1  
    ##  2 atlanta police department            1.7  
    ##  3 gwinnett county police department    1.7  
    ##  4 cobb county police department        1.33 
    ##  5 clayton county police department     1    
    ##  6 richmond county sheriff's department 0.714
    ##  7 lowndes county sheriff's department  0.5  
    ##  8 paulding county sheriff's department 0.5  
    ##  9 henry county police department       0.444
    ## 10 bibb county sheriff's department     0.4  
    ## # … with 641 more rows

    ## # A tibble: 164 x 2
    ##    ag_names                                     m
    ##    <chr>                                    <dbl>
    ##  1 cobb county police department              3  
    ##  2 bartow county sheriff's department         1.5
    ##  3 brantley county sheriff's department       1  
    ##  4 columbus police department                 1  
    ##  5 douglas county sheriff's department        1  
    ##  6 henry county police department             1  
    ##  7 kingsland police department                1  
    ##  8 leesburg police department                 1  
    ##  9 savannah-chatham metro police department   1  
    ## 10 forsyth county sheriff's department        0.8
    ## # … with 154 more rows
…
